<svg width="261px" height="260px" viewBox="0 0 261 260" version="1.1" xmlns="http://www.w3.org/2000/svg" xmlns:xlink="http://www.w3.org/1999/xlink">
    <g id="Page-1" stroke="none" stroke-width="1" fill="none" fill-rule="evenodd">
        <g id="Group" transform="translate(1.000000, 2.000000)" fill-rule="nonzero">
            <rect id="Rectangle" fill="#01384A" x="1" y="0" width="256" height="256"></rect>
            <polygon id="Path" fill="#114556" points="169.233822 0 257 0 257 74.9919259 176.757867 82.0122028 176.824356 82.7721667 257 75.7577067 176.824356 82.7721667 185.189944 178.391275 184.957504 178.411611 184.987797 178.757867 184.969972 178.759427 185.042496 179.588389 88.68125 188.018906 94.6288251 256 1 256 1 194.620495 88.2421326 186.987797 79.8665869 91.2548723 1 98.1548046 79.8665869 91.2548723 79.8176525 90.6955493 1 97.5912004 1 0.220676126 3.52233966 0 73.1170393 0 81.0424964 90.5883893 79.8176525 90.6955493 79.8665869 91.2548723 176.824356 82.7721667 185.189944 178.391275 257 172.108709 257 256 191.745608 256 184.987797 178.757867 184.969972 178.759427 176.588389 82.9575036 79.9575036 91.4116107 88.31875 186.981094 88.2421326 186.987797 79.8665869 91.2548723 176.824356 82.7721667 176.757867 82.0122028 176.411611 82.0424964 169.233822 0"></polygon>
            <path d="M72.5,0 L94.5,256" id="Line" stroke="#FFFFFF" stroke-width="2" fill="#FFFFFF" stroke-linecap="square"></path>
            <path d="M169.5,0 L191.5,256" id="Line" stroke="#FFFFFF" stroke-width="2" fill="#FFFFFF" stroke-linecap="square"></path>
            <path d="M1,98 L257,75" id="Line" stroke="#FFFFFF" stroke-width="2" fill="#FFFFFF" stroke-linecap="square"></path>
            <path d="M2,195 L258,172" id="Line-Copy" stroke="#FFFFFF" stroke-width="2" fill="#FFFFFF" stroke-linecap="square"></path>
        </g>
    </g>
</svg>